<?xml version='1.0' encoding='ASCII' standalone='yes'?>
<svg xmlns="http://www.w3.org/2000/svg" xmlns:xlink="http://www.w3.org/1999/xlink" version="1.1" width="20cm" viewBox="0 0 20cm 10cm" height="10cm">
  <g>
    <g><defs xmlns:inkscape="http://www.inkscape.org/namespaces/inkscape" xmlns:osb="http://www.openswatchbook.org/uri/2009/osb" id="defs2">
    <rect x="107.97421" y="-151.73031" width="75.199545" height="38.950834" id="rect989"/>
    <rect x="-16.952085" y="-230.39821" width="221.06052" height="129.07062" id="rect979"/>
    <rect x="31.172885" y="-144.505" width="108.60836" height="48.104622" id="rect969"/>
    <rect x="172.43392" y="-128.38793" width="96.438005" height="51.74548" id="rect959"/>
    <rect x="-91.740248" y="-162.99953" width="52.099441" height="52.33443" id="rect3691"/>
    <marker style="overflow:visible;" id="marker3587" refX="0.0" refY="0.0" orient="auto" inkscape:stockid="Arrow1Mend" inkscape:isstock="true">
      <path transform="scale(0.4) rotate(180) translate(10,0)" style="fill-rule:evenodd;stroke:#000000;stroke-width:1pt;stroke-opacity:1;fill:#000000;fill-opacity:1" d="M 0.0,0.0 L 5.0,-5.0 L -12.5,0.0 L 5.0,5.0 L 0.0,0.0 z " id="path3585"/>
    </marker>
    <marker style="overflow:visible" id="Arrow2Mstart" refX="0.0" refY="0.0" orient="auto" inkscape:stockid="Arrow2Mstart" inkscape:isstock="true">
      <path transform="scale(0.6) translate(0,0)" d="M 8.7185878,4.0337352 L -2.2072895,0.016013256 L 8.7185884,-4.0017078 C 6.9730900,-1.6296469 6.9831476,1.6157441 8.7185878,4.0337352 z " style="fill-rule:evenodd;stroke-width:0.625;stroke-linejoin:round;stroke:#000000;stroke-opacity:1;fill:#000000;fill-opacity:1" id="path894"/>
    </marker>
    <marker style="overflow:visible;" id="marker3389" refX="0.0" refY="0.0" orient="auto" inkscape:stockid="Arrow1Mend" inkscape:isstock="true" inkscape:collect="always">
      <path transform="scale(0.4) rotate(180) translate(10,0)" style="fill-rule:evenodd;stroke:#000000;stroke-width:1pt;stroke-opacity:1;fill:#000000;fill-opacity:1" d="M 0.0,0.0 L 5.0,-5.0 L -12.5,0.0 L 5.0,5.0 L 0.0,0.0 z " id="path3387"/>
    </marker>
    <marker style="overflow:visible;" id="marker3322" refX="0.0" refY="0.0" orient="auto" inkscape:stockid="Arrow1Mend" inkscape:isstock="true">
      <path transform="scale(0.4) rotate(180) translate(10,0)" style="fill-rule:evenodd;stroke:#000000;stroke-width:1pt;stroke-opacity:1;fill:#000000;fill-opacity:1" d="M 0.0,0.0 L 5.0,-5.0 L -12.5,0.0 L 5.0,5.0 L 0.0,0.0 z " id="path3320"/>
    </marker>
    <marker style="overflow:visible;" id="Arrow1Mend" refX="0.0" refY="0.0" orient="auto" inkscape:stockid="Arrow1Mend" inkscape:isstock="true" inkscape:collect="always">
      <path transform="scale(0.4) rotate(180) translate(10,0)" style="fill-rule:evenodd;stroke:#000000;stroke-width:1.0pt;" d="M 0.0,0.0 L 5.0,-5.0 L -12.5,0.0 L 5.0,5.0 L 0.0,0.0 z " id="path879"/>
    </marker>
    <marker style="overflow:visible" id="DotS" refX="0.0" refY="0.0" orient="auto" inkscape:stockid="DotS" inkscape:isstock="true">
      <path transform="scale(0.2) translate(7.4, 1)" style="fill-rule:evenodd;stroke:#000000;stroke-width:1pt;stroke-opacity:1;fill:#000000;fill-opacity:1" d="M -2.5,-1.0 C -2.5,1.7600000 -4.7400000,4.0 -7.5,4.0 C -10.260000,4.0 -12.5,1.7600000 -12.5,-1.0 C -12.5,-3.7600000 -10.260000,-6.0 -7.5,-6.0 C -4.7400000,-6.0 -2.5,-3.7600000 -2.5,-1.0 z " id="path937"/>
    </marker>
    <marker style="overflow:visible;" id="Arrow2Lend" refX="0.0" refY="0.0" orient="auto" inkscape:stockid="Arrow2Lend" inkscape:isstock="true">
      <path transform="scale(1.1) rotate(180) translate(1,0)" d="M 8.7185878,4.0337352 L -2.2072895,0.016013256 L 8.7185884,-4.0017078 C 6.9730900,-1.6296469 6.9831476,1.6157441 8.7185878,4.0337352 z " style="fill-rule:evenodd;stroke-width:0.625;stroke-linejoin:round;stroke:#000000;stroke-opacity:1;fill:#000000;fill-opacity:1" id="path891"/>
    </marker>
    <linearGradient id="linearGradient3134" osb:paint="solid">
      <stop style="stop-color:#ffe67f;stop-opacity:1;" offset="0" id="stop3132"/>
    </linearGradient>
    <marker style="overflow:visible" id="Arrow1Lstart" refX="0.0" refY="0.0" orient="auto" inkscape:stockid="Arrow1Lstart" inkscape:isstock="true">
      <path transform="scale(0.8) translate(12.5,0)" style="fill-rule:evenodd;stroke:#000000;stroke-width:1.0pt" d="M 0.0,0.0 L 5.0,-5.0 L -12.5,0.0 L 5.0,5.0 L 0.0,0.0 z " id="path870"/>
    </marker>
    <marker style="overflow:visible" id="Arrow1Sstart" refX="0.0" refY="0.0" orient="auto" inkscape:stockid="Arrow1Sstart" inkscape:isstock="true">
      <path transform="scale(0.2) translate(6,0)" style="fill-rule:evenodd;stroke:#000000;stroke-width:1pt;stroke-opacity:1;fill:#000000;fill-opacity:1" d="M 0.0,0.0 L 5.0,-5.0 L -12.5,0.0 L 5.0,5.0 L 0.0,0.0 z " id="path882"/>
    </marker>
    <linearGradient id="linearGradient866" osb:paint="solid">
      <stop style="stop-color:#000000;stop-opacity:1;" offset="0" id="stop864"/>
    </linearGradient>
    <rect x="49.513036" y="-221.2489" width="97.384237" height="52.03225" id="rect856"/>
    <linearGradient inkscape:collect="always" xlink:href="#linearGradient866" id="linearGradient868" x1="70.329228" y1="156.9901" x2="209.20483" y2="156.9901" gradientUnits="userSpaceOnUse" gradientTransform="matrix(0.9991275,0,0,0.96800375,0.04904606,5.7406124)"/>
    <linearGradient inkscape:collect="always" xlink:href="#linearGradient866" id="linearGradient868-3" x1="70.329231" y1="156.9901" x2="209.20483" y2="156.9901" gradientUnits="userSpaceOnUse" gradientTransform="translate(250.83722,0.3872504)"/>
    <linearGradient inkscape:collect="always" xlink:href="#linearGradient866" id="linearGradient868-5" x1="70.329231" y1="156.9901" x2="209.20483" y2="156.9901" gradientUnits="userSpaceOnUse" gradientTransform="translate(490.6287,1.8013476)"/>
    <linearGradient inkscape:collect="always" xlink:href="#linearGradient866" id="linearGradient3136" x1="209.76234" y1="156.43465" x2="320.55209" y2="156.43465" gradientUnits="userSpaceOnUse"/>
  </defs>
  <sodipodi:namedview xmlns:sodipodi="http://sodipodi.sourceforge.net/DTD/sodipodi-0.dtd" xmlns:inkscape="http://www.inkscape.org/namespaces/inkscape" id="base" pagecolor="#ffffff" bordercolor="#666666" borderopacity="1.0" inkscape:pageopacity="0.0" inkscape:pageshadow="2" inkscape:zoom="0.35" inkscape:cx="144.28571" inkscape:cy="555.71429" inkscape:document-units="cm" inkscape:current-layer="layer1" inkscape:document-rotation="0" showgrid="false" units="cm" inkscape:window-width="2560" inkscape:window-height="1316" inkscape:window-x="1920" inkscape:window-y="27" inkscape:window-maximized="1"/>
  <metadata xmlns:rdf="http://www.w3.org/1999/02/22-rdf-syntax-ns#" xmlns:cc="http://creativecommons.org/ns#" xmlns:dc="http://purl.org/dc/elements/1.1/" id="metadata5">
    <rdf:RDF>
      <cc:Work rdf:about="">
        <dc:format>image/svg+xml</dc:format>
        <dc:type rdf:resource="http://purl.org/dc/dcmitype/StillImage"/>
        <dc:title/>
      </cc:Work>
    </rdf:RDF>
  </metadata>
  <g xmlns:inkscape="http://www.inkscape.org/namespaces/inkscape" xmlns:sodipodi="http://sodipodi.sourceforge.net/DTD/sodipodi-0.dtd" inkscape:label="Calque 1" inkscape:groupmode="layer" id="layer1">
    <rect style="fill:#ffe67f;fill-opacity:1;fill-rule:evenodd;stroke:url(#linearGradient868);stroke-width:1.47516;stroke-linejoin:round;stroke-miterlimit:4;stroke-dasharray:none;stroke-opacity:1;paint-order:fill markers stroke" id="rect842" width="138.521" height="42.663712" x="70.433624" y="136.37576"/>
    <text xml:space="preserve" id="text854" style="font-style:normal;font-weight:normal;font-size:10.5833px;line-height:1.25;font-family:sans-serif;white-space:pre;shape-inside:url(#rect856);fill:#000000;fill-opacity:1;stroke:none;"/>
    <text xml:space="preserve" style="font-style:normal;font-weight:normal;font-size:19.7556px;line-height:1.25;font-family:sans-serif;white-space:pre;inline-size:151.808;fill:#000000;fill-opacity:1;stroke:none;stroke-width:0.264583" x="72.424706" y="-193.252" id="text862" transform="translate(9.5833947,355.43899)"><tspan x="72.424706" y="-193.252"><tspan style="font-size:19.7556px;stroke-width:0.264583">Susceptible</tspan></tspan></text>
    <rect style="fill:#ffa87f;fill-opacity:1;fill-rule:evenodd;stroke:url(#linearGradient868-3);stroke-width:1.5;stroke-miterlimit:4;stroke-dasharray:none;stroke-opacity:1;paint-order:fill markers stroke" id="rect842-7" width="138.64197" height="44.07391" x="321.28323" y="135.34039" inkscape:transform-center-x="-8.50834" inkscape:transform-center-y="1.2683796"/>
    <rect style="fill:#9cb2ff;fill-opacity:1;fill-rule:evenodd;stroke:url(#linearGradient868-5);stroke-width:1.5;stroke-miterlimit:4;stroke-dasharray:none;stroke-opacity:1;paint-order:fill markers stroke" id="rect842-5" width="138.64197" height="44.07391" x="561.07477" y="136.75449"/>
    <path style="fill:url(#linearGradient3136);fill-opacity:1;stroke:#000000;stroke-width:1.5;stroke-linecap:butt;stroke-linejoin:miter;stroke-miterlimit:4;stroke-dasharray:none;stroke-opacity:1;marker-mid:url(#DotS);marker-end:url(#Arrow1Mend)" d="m 209.76349,155.95477 110.78744,0.95974" id="path1186"/>
    <path style="fill:none;stroke:#000000;stroke-width:1.5;stroke-linecap:butt;stroke-linejoin:miter;stroke-miterlimit:4;stroke-dasharray:none;stroke-opacity:1;marker-start:url(#Arrow2Mstart)" d="m 461.97196,167.01972 99.91434,-0.76786" id="path1188"/>
    <circle id="path3314" style="fill:#000000;stroke:none;stroke-width:0.264583" cx="11.255127" cy="161.01311" r="0.39687499"/>
    <circle id="path3316" style="fill:#000000;stroke:none;stroke-width:0.264583" cx="18.564941" cy="165.14223" r="0.39687499"/>
    <path style="fill:none;stroke:#000000;stroke-width:1.5;stroke-linecap:butt;stroke-linejoin:miter;stroke-miterlimit:4;stroke-dasharray:none;stroke-opacity:1;marker-end:url(#marker3322)" d="M 9.4235688,158.24961 H 69.429139" id="path3318"/>
    <path style="fill:none;stroke:#000000;stroke-width:1.5;stroke-linecap:butt;stroke-linejoin:miter;stroke-miterlimit:4;stroke-dasharray:none;stroke-opacity:1;marker-end:url(#marker3389)" d="m 458.74292,151.50773 99.91434,-0.76786" id="path1188-6"/>
    <path style="fill:none;stroke:#000000;stroke-width:1.5;stroke-linecap:butt;stroke-linejoin:miter;stroke-miterlimit:4;stroke-dasharray:none;stroke-opacity:1;marker-end:url(#marker3587)" d="m 136.87186,179.87029 v 93.79537 h 496.9047 v -92.91543" id="path3583"/>
    <text xml:space="preserve" style="font-style:normal;font-weight:normal;font-size:19.7556px;line-height:1.25;font-family:sans-serif;white-space:pre;inline-size:151.808;fill:#000000;fill-opacity:1;stroke:none;stroke-width:0.264583" x="72.424706" y="-193.252" id="text862-2" transform="translate(276.40926,357.80872)"><tspan x="72.424706" y="-193.252"><tspan>Zombie</tspan></tspan></text>
    <text xml:space="preserve" style="font-style:normal;font-weight:normal;font-size:19.7556px;line-height:1.25;font-family:sans-serif;white-space:pre;inline-size:151.808;fill:#000000;fill-opacity:1;stroke:none;stroke-width:0.264583" x="72.424706" y="-193.252" id="text862-9" transform="translate(514.50013,357.39554)"><tspan x="72.424706" y="-193.252"><tspan>Removed</tspan></tspan></text>
    <text xml:space="preserve" id="text3689" style="font-style:normal;font-weight:normal;font-size:10.5833px;line-height:1.25;font-family:sans-serif;white-space:pre;shape-inside:url(#rect3691);fill:#000000;fill-opacity:1;stroke:none;"/>
    <text xml:space="preserve" style="font-style:normal;font-weight:normal;font-size:10.5833px;line-height:1.25;font-family:sans-serif;white-space:pre;inline-size:79.7634;fill:#000000;fill-opacity:1;stroke:none;stroke-width:0.264583" x="-63.992031" y="-138.207" id="text3697" transform="matrix(1.649638,0,0,1.5144021,133.09125,355.49504)"><tspan x="-63.992031" y="-138.207"><tspan>&#928;</tspan></tspan></text>
    <text xml:space="preserve" id="text957" style="fill:black;fill-opacity:1;line-height:1.25;stroke:none;font-family:sans-serif;font-style:normal;font-weight:normal;font-size:10.58333337px;white-space:pre;shape-inside:url(#rect959);"/>
    <text xml:space="preserve" style="font-style:normal;font-weight:normal;font-size:14.6762px;line-height:1.25;font-family:sans-serif;fill:#000000;fill-opacity:1;stroke:none;stroke-width:0.366907;-inkscape-font-specification:'sans-serif, Normal';font-stretch:normal;font-variant:normal;font-variant-ligatures:normal;font-variant-caps:normal;font-variant-numeric:normal;font-variant-east-asian:normal;" x="270.3847" y="125.42296" id="text965" transform="scale(0.88541594,1.1294127)"><tspan sodipodi:role="line" id="tspan969">&#946;ZS</tspan></text>
    <text xml:space="preserve" id="text967" style="fill:black;fill-opacity:1;line-height:1.25;stroke:none;font-family:sans-serif;font-style:normal;font-weight:normal;font-size:10.58333337px;white-space:pre;shape-inside:url(#rect969);"/>
    <text xml:space="preserve" style="font-style:normal;font-weight:normal;font-size:14.4768px;line-height:1.25;font-family:sans-serif;fill:#000000;fill-opacity:1;stroke:none;stroke-width:0.361921" x="435.07736" y="214.56059" id="text975" transform="scale(1.1481144,0.87099334)"><tspan sodipodi:role="line" id="tspan973" x="435.07736" y="214.56059" style="stroke-width:0.361921">&#950;R</tspan></text>
    <text xml:space="preserve" id="text977" style="fill:black;fill-opacity:1;line-height:1.25;stroke:none;font-family:sans-serif;font-style:normal;font-weight:normal;font-size:10.58333337px;white-space:pre;shape-inside:url(#rect979);"/>
    <text xml:space="preserve" style="font-style:normal;font-weight:normal;font-size:14.4561px;line-height:1.25;font-family:sans-serif;fill:#000000;fill-opacity:1;stroke:none;stroke-width:0.361402;-inkscape-font-specification:'sans-serif, Normal';font-stretch:normal;font-variant:normal;font-variant-ligatures:normal;font-variant-caps:normal;font-variant-numeric:normal;font-variant-east-asian:normal;" x="517.31531" y="134.68454" id="text985" transform="scale(0.93769679,1.0664428)"><tspan sodipodi:role="line" id="tspan971">&#945;SZ</tspan></text>
    <text xml:space="preserve" id="text987" style="fill:black;fill-opacity:1;line-height:1.25;stroke:none;font-family:sans-serif;font-style:normal;font-weight:normal;font-size:10.58333337px;white-space:pre;shape-inside:url(#rect989);"/>
    <text xml:space="preserve" style="font-style:normal;font-weight:normal;font-size:14.1966px;line-height:1.25;font-family:sans-serif;fill:#000000;fill-opacity:1;stroke:none;stroke-width:0.354915" x="369.10519" y="285.74609" id="text995" transform="scale(0.9779804,1.0225154)"><tspan sodipodi:role="line" id="tspan993" x="369.10519" y="285.74609" style="stroke-width:0.354915">&#948;S</tspan></text>
  </g>
</g>
  </g>
</svg>
